{
  "content": [
    {
      "icon": {
        "iconShortText": "NT",
        "iconColorCode": "#F0B27A"
      },
      "from": {
        "name": "Now TV 2",
        "email": "nowtv@test.com"
      },
      "subject": "Grab another Pass, you need to be watching this...",
      "body": "Oscar winners Sir Anthony Hopkins and Ed Harris join an impressive cast boasting the likes of Thandie Newton, James Marsden and Jeffrey Wright.",
      "createdTime": "11:15",
      "isRead": false
    },
    {
      "icon": {
        "iconShortText": "IT",
        "iconColorCode": "#F08080"
      },
      "from": {
        "name": "Investopedia Terms 2",
        "email": "investopedia@test.com"
      },
      "subject": "What is 'Fibonanci Retracement'?",
      "body": "Fibonacci retracement is a term used in technical analysis that refers to areas of support (price stops going lower) or resistance (price stops going higher).",
      "createdTime": "11:15",
      "isRead": false
    },
    {
      "icon": {
        "iconShortText": "AG",
        "iconColorCode": "#7D3C98"
      },
      "from": {
        "name": "ASICS Greater Manchester Marathon 2",
        "email": "events@human-race.co.uk"
      },
      "subject": "Your chance to take on the marathon",
      "body": "Do you feel inspired to take on one of Europe's most highly regarded and popular marathons?",
      "createdTime": "11:15",
      "isRead": false
    },
    {
      "icon": {
        "iconShortText": "AT",
        "iconColorCode": "#F0B27A"
      },
      "from": {
        "name": "ASICS Greater Manchester Marathon 2",
        "email": "events@human-race.co.uk"
      },
      "subject": "Your chance to take on the marathon",
      "body": "Do you feel inspired to take on one of Europe's most highly regarded and popular marathons?",
      "createdTime": "11:15",
      "isRead": false
    },
    {
      "icon": {
        "iconShortText": "AT",
        "iconColorCode": "#F0B27A"
      },
      "from": {
        "name": "ASICS Greater Manchester Marathon 2",
        "email": "events@human-race.co.uk"
      },
      "subject": "Your chance to take on the marathon",
      "body": "Do you feel inspired to take on one of Europe's most highly regarded and popular marathons?",
      "createdTime": "11:15",
      "isRead": false
    }
  ],
  "last": false,
  "totalElements": 20,
  "totalPages": 4,
  "size": 5,
  "number": 1,
  "sort": null,
  "first": false,
  "numberOfElements": 5
}
